(DIESE ZEILE MUSS STEHEN BLEIBEN)
0/19.04.16/Sitz/Test/5&0&9
0/20.04.16/Beamer/asdsaasdasd/5&0&9
0/31.01.16/Tür/schließt nicht/7&3&8
0/01.02.16/Sitz/schraube entfernt/9&1&2
0/01.02.16/Tisch/fehlt/5&0&9
0/01.02.16/Fenster/schließt nicht/9&2&4
0/01.02.16/Beamer//5&0&9
0/01.02.16/Beamer//5&0&9
0/27.02.16/Beamer/daw/5&0&9
0/27.02.16/Beamer/dad/5&0&9
0/17.04.16/Beamer/14:12/5&0&9
0/17.04.16/Sitz/test/9&3&6
0/17.04.16/Beamer//5&0&9
0/17.04.16/Beamer//5&0&9
1337/25.04.16/Beamer/c342f34tg45zgh/9&2&4
